-1,
LOC.130-

0360-B,
1012-1017
105-141,
E-04
E-04
LC-
LOC.T-109,
148-1
E-228-230,
A-4
SANTIAGO-CHICUREO
E-04
101-B
6-105
T116-117
E-04
A120-124,
U-59,
Chicureo-
MI-105
240-250
1-2,
alhu?-
Y-19,
.2-3-4
1-2
612-630
-34.1570970

-34.1588670

-34.1454280

-34.1519240

-34.1587370

-34.1476970

-34.1576350

-34.1516040

-34.1434500

H-K
820-832
T-
54-B2
1-3
A-14
2-A
fc-221)
B-107,
#1209-
B-109-A,
127-131-135
N-689
L.5-7
35-
B-

8-9
6978-6966
N-º
115-116-247-248-249-.
1-A,
-1
A236-A238,
9-2187121
129-B,
Bío-Bío
0472-VJARDINES
11-,CALERA
594-C,MELIPILLA,Chile

10-f.entrar
96-5475589.

g-6
98-4390003.
PC-37
9-S
10492-1049

79-A
MARCHANT-CALLEJÓN
S/N-,
ESQUINAS-CALLEJON
MASTERPLAC-FRENTE
K-205,
RASTRAS-2
NORTE-LOTE
S/N-,
K-205,
210-CAM.
MASTERPLAC-FRENTE
SAUCE-FRENTE
CARROS-ANTES
,rec-alvaro
rivero,cel-959450247.
Freire-Villarrica
9-5001
222213503-982332611
9-5001
222213503-982332611
9-72556652

,rec-alvaro
rivero,cel-959450247.

,rec-mario,cel-974028677.

s1a-3
-hacienda
ALGARROBO-SAN
ALGARROBO-SAN
E-5
10-f
A-28
95-A
A2-A3
SANTIAGO-ESTACION

SANTIAGO-CONCHAL

D-206,
104-,
B-2,
B-318,
270-271,
249-250,
126-1,
B-,
LOC.196-C,
10492-1049,
14-36
10-B
12-B
A-B
12-B
5981-A
A-2
202-212
4-8,
CHICUREO-COLINA

-VILLA
PEDRO-ALTO
2-PUDAHUEL
PJ-10SUR
66-67,
270-A
COLINA-CHICUREO

COLO-COLO
C-7,
A2-A3
G-49
9-B.
B-19
-EXP
P-9
P-167,
LLO-LLEO

LLO-LLEO

P-44,
LLO-LLEO

270-
15-C
A.VESPUCIO-
COLINA-CHICUREO

25-37
ST-38-B,
F-6,
F-9
-10,
48-B
K-2

269-A
269-B
C-12
F-69
-70
1-C
A-1
-2309,
1920-C
LOCAL-8

J-14
1-B
96669130-1

6780-LOC.F02

A-2,
CHAMPA-PAINE

B-62
ROSAS3445----,
CAMPINO2263B----,
PRIETO4258----LOS
720--DPTO.
-33,5706153586908
-70,5672585609853

1-Z
-ÑUÑOA

25-37
101-B
T-
240-250
T116-117
LaObra3230-DeptoA14,PuenteAlto,VillaSanJose2

Psj351254-Dept22,LaPintana,Ref:PortoAlegre

-oficina
LasSemillasBlock1571-Depto312,PuenteAlto

PasajeBañosMorales0108Block0108-DeptoB33,PuenteAlto,VolcánI

A2-A3
6-105
8-9
1-2
PasajeEpu3567-Depto13,PuenteAlto,VillaElCaleuche

LaLecheria3450-Depto22,PuenteAlto,VillaelVolcan3

Av.Mexico2143-Casa84,PuenteAlto,CondominioMonteVerde-2

Lapilazuli1446,LaFlorida-VillaSanJosedelaestrellaI

820-832
Choapa#444,DeptoC-PoblaciónManuelRodriguez,PuenteAlto

ElFrutoOrienteBlock1658-Depto106,PuenteAlto,Calledereferencia:Nocedal

CaminoInternancional1430-DeptoA/11,PuenteAlto,Ref:EjercitoLibertador

TERRAZAS-
102-A.
EjercitoLibertador4184-Casa143,PuenteAlto,CondominioValleVerde1

ParqueCentral06885-Casa53,PuenteAlto,CondominioLasPalmas.Cuidaddeleste,entrecaminodelaguayelacueducto.

Psje.Borlon4657,PteAlto-ValledelSol

B-16
R-27
AvenidaMexico2227-casa5,CondominioAzulPuenteAlto

Pasaje35-Block1253-Depto24,LaPintana,VillaSanRicardo

6460-A
LasNievesOriente2590-Casa82,PuenteAlto

LomaVerde03045-PasajeDosCasa29,PuenteAlto,CondominioelCanelo

ex-
TroncalSanfrancisco2521-Casa38,PuenteAlto,CondominioNuevoSiglo

CalleD-Block1137-Depto14,LaPintana,Pobl.SanRicardo

LomaVerde03045-Casa18,PuenteAlto,CondominioElCaneloLomasdeEyzaguirrre

PadreLeónDehon6190-Dpto51,LasCondes

820-832
CHICUREO-COLINA

1-2
6-105
MAR-LIMACHE
25-37
AvenidaMexico2241-Casa50,PuenteAlto(CondominioNuevoSiglo)

240-250
MC-PROVIDENCIA

101-B
H5-6
PasajeSendaA1180-Dpto23,LaPintana,VillaSanRicardo-entreGabriela,RauliyCalleC.

LaPrimavera3446-BlockA-Depto20,LaPintana,(Esel2°Block)

LosConquistadores1242-Depto34,PuenteAlto,VillaHernanCortéz

SendaBblock1016-Depto22,LaPintana

PasajeLlallin1869-DeptoA11,PuenteAlto,VillaPadreHurtado

8-9
LaRamada0898-Depto36,PuenteAlto,VillaSanGuillermo

0405-0407
ElTronco1581-Depto306,PuenteAlto,VillaNocedal3

SargentoMenadier2819Depto102-b,PuenteAlto,VillaSanMiguel/

PedroNuñezFernández1545-Casa48,PuenteAlto,CondominioLosCiruelos4

RamóntoroIbañez6025-Depto34,Macul

CalleC1138-Depto13,LaPintana,SanRicardo

ClaudioMatte189,PuenteAlto,PoblaciónSanPedro-Referencia:AntesdelPuenteSanRamon/ConchaYToro

612-630
A-14,
1-Casa
ex-
18-19
113-114
T-
T116-117
1777-
-2
181-
-1
33-35
202-212
106-107
1656-
782-722
B-1057
LOC-48
LOC-1105
3040,3046)-
-293
PANA-
PISO-MATELINI-CHORILLOS

AYACUCHO)-SANTIAGO
 -
- SANTIAGO
 -
 -
 -
- MAGDALENA
A-12
REBAGLIATI)-
PTO-5
GAMARRA-LA
210-CDRA.
LAMPA-LIMA

-SANTIAGO
786-103)LIMA
 -
-3
-43

C-2,
-6TO
D-13D-13
5319-5359,
#85-2
85-90,
121-124
110-111
H-60
5-6
5-6
OSORNO-OSORNO
7-1086446
MARATON-VILLA
F-30
C-2,
A-4
36-37-38
C-5
CURICO-LOS
91-3
-1
02-23511893
S8-223
S/N-STEFANO
OE14-49
OE14-12
OE16-167-VALLICA

OE16-294
OE13-219
OE16-297
OE16-21
OE16-03
OE16-161
OE18-61
N6-21-F.VELASCO

OE16-208-VELASCO

OE16-301
OE16-287
OE16-72
N6-21
N2-195-ALTANDEGUA

OE18-314-ALTANDAGUA

N6-72
OE16-220
N6-81

OE17-113
N6-91
OE16-168-CABAL

N3A-J.SEVILLA

OE16-84-IGNASIO

OE16-229-CAMACHO

F.VELASCO-PJE.OE16
OE16-192
15-73
OE31-493-J.SOTO

oe15-33
6-83
OE15-70-CENTURION

N6-183
OE14-119-S.ALLENDE

OE15-54
OE16-38-DE
14-54
PRINC.-LUMBISI

PRINC.-FTE.PARQUE

514-
24-AGOSTO
E2-109-FTE
OE1-39
H-30
J-55,
5-D,
RUIZ-TA,
J-1,
28-B,
1-B,
A-13,
901-
I-50
S-P,
I-50,
H-66,
ORIENTE-PONIENTE
ORIENTE-PONIENTE
H-265,
772-B,
B-11,
138-A
I-
H-10,
MINEPRO-
4-A
3-B,
3-B,
PIZARREÐO-SANTIAGO,
1771-D,
127-,
CMPC-PTA.
KOMATSU-MOP,
I-30
J-30L,
H-82
EX-AVDA
A-13,
A-6,
A-19.,
I-50
L-30
-M,
H-10,
1140-
122-A,POB.CUADRA,
56-B,
12-B,
1-2-4
37-B,
160-92,
PC-8,
70-71
2-B
1-B
7-B,
41-B
-B,
Nª19-A
Nª19-A
PC-1,
1-RAMIRANDA,
LINGO-LINGO
4-CHACON,
ESMERALDA-LAS
G-60,
G-840,,
B-1
N°356-B
2-3,
J-36.
A-H
5-B,
G-40
38-B,
95-A
D-1,
N.1251-B,
6-A,
25-A,
A-63,
9871-B,
11-A,
051-B,
1-3/,
17-A,
071-B,
B-13,
31-A,
2291-A,
C-8,
7-A,
A-B,
8-A,
8-A,
26-131,
26-
C-11
31-32
11-A,
Nª9871-B,
Nª485-C,
10-C,
5-B
28-B,
95-A
95-A
195-E,
95-AB
D-1,
L-1,
111-501,
B-,
G-76,KM.19300,
PORTUGAL-
649-B
TAL-TAL,
N°16701-5
G-130
DEPTO-LOCAL
H-30,
I-90
BRONCES-FARELLONES,
A-1,
A-1,
A-
H-30
A-13,
23-29,
H-,
Nª7-B,
19-A,
N-99
N-9
N-19,
PARC.90-91,
PARC.2-B,
19-A
26-1,
87-88
H-30
C-5
TAMBO-MALLOA,
26-B
A-2
B-1
I-50
CAMINO-CORRALONES,
H-30
l-45
E-11
BOBADILLA-COLBUN
318-B,
3-A,
195-E,
H-30
-OJOS
19-A
70-B
G-16
7-1/2,
31-A,
E-5,
29-B
SUB-ESTACION
G-345
1-A
5-B
-LOS
5-A,
4-A,
4-A,
4-A,
N°812-
95-A
H30-
H-30
H-30,
CH-115,
110-
-1,
O-101,
C-155,
10-11,
12-13,
B-301,
11-B,
E-11,
B-201,
-A,
10-A,
38-41,
343-377
PIO-NONO
-200,
BS.RS612-4,
B-C,
4860-
6251-LOC
100-101,
137-141,
LA-51B3
17-A,
04-
12-13,
A-3,
226-A,
3-4,
1-b
-30,
20-A,
10-A,
B-3,
6-A,
108-19,
106-A,
C-1,
52-53
32-A,
K-45,
M-N,
1-B-1,
B-1
6-A,
N3-C,
340-C
11-12,
120-D
6-7,
05-86,
14-15,
10-A,
0472-VJARDINES
594-C,
47-B,
93-B,
A-1B
33-A,
19-A,
25-A,
47-A,
9-08,
5-CASA
A-1,
A-4,
333-B
6-2,
G-904
A-3,
H-66
C-6,
A-1,
PARC.2-A
1-2
8-A,
254-C,
4-B,
A-1B
340-C
3-4,
L-1031,
B-
-SANTIAGO

-SANTIAGO

L-129,
251-252,
1059-STGOCENTRO,
F-6,
173-17,
-EX-CALLE
-17,
JUAREZ-
A-B
LOC-C,
P-1A,
-,
4-5
272-A
1-C,
108-2
LOC-8,
270-271,
L-178,
D-53,
249-250,
1509-1513
399-A,
3-A
114-A
34-B,
158-1,
LOC-9
J-21,
5633-loc
M-1,
LOC.153-155,
LOC.421-422
5413-LOCAL
PC-05,
LOC.31-32
LOC.307-308
8-A,
311-A,
208-20,
G-1
PDO-43,
743-LOCAL
7-A,
1-2-3
201-202,
13-15,
485-H,
2-4
LOC236-237,
B-333
B-31,
314-320
-EL
LOC-C,
2710-10C3,
MAC-IVER
1-2-3,
T-2
B-C,
-1,
291-LOC
734-738
610-B,
B-
3-337,
392-A,
16-17,
16-17,
11-A,
606-C,
33-,
12-B
LOC85-86,
175-D
B206-236,
LOC.153-155/,
1053-1
B-201
LOCAL-1,
T-4,
B-8,
-315,
-,
B-13
209-210
B-226,
A-204,
1275-C,
315-316,
LOC21-22-23,
LOC21-22-23,
G-F
-1
3-LO
1777-
CURTO-CALERA
MLI-6
A-112CO,
CASTILLOL/2-C3
104-105-,
LOC-121/124,
4-5
81-
3492-QTA
B-318,
LOC.196-C,
L-2,
28-29
5413-LOCAL
5413-LOCAL
612*-LAS
14-36
2-C
B-223,
LOC.102-B
LOC.101-B,
4-5,
106-107
31A-LO
B-2
EstaciónCoronel0765-Depto31,PuenteAlto,ElVolcanSanJose3

N9-10-11
H-886
1711-E
H-30
B-2
L-1,
H-35
9-A
67-61,
G-7-60,
H-66
SUR-A
P-3,
P-3,
A-0,
26-,
L-1,
1-2
11-A,
-1,
19-8,
28-B
31-,
31-32,
1-2-3,
-A
650-
C31-C32
SITIOK-19,
13-A'
403-A'
363-A'
