Total	15

Shapes
========================================

                                        6
*                                       6
*AAAAA*#                                1
ddd*#AAA                                1
*AAAAAA                                 1

Compact Shapes
========================================
                                        6
*                                       6
*A*#                                    1
*A                                      1
d*#A                                    1

