Total	627384

Shapes
========================================

Aaaaaa                                  110377
Aaaaa                                   105581
Aaaaaaaaaaaaa?                          77579
dddd?                                   38414
Aaa                                     33794
Aaaaaaa                                 23865
Aaaaaaaa?                               23614
ddd?                                    20071
Aaaaaaaa                                19704
Aa                                      19505

Compact Shapes
========================================
Aa                                      349752
Aa?                                     181239
d?                                      65971
d?d?                                    15165
a                                       10224
A                                       3157
A?Aa                                    826
d                                       562
A?d                                     171
?                                       89

